{"failedCount":0,"prefixedPath":"src\/test\/java\/Feature\/FirtAPITest.feature","packageQualifiedName":"src.test.java.Feature.FirtAPITest","loopIndex":-1,"relativePath":"src\/test\/java\/Feature\/FirtAPITest.feature","scenarioResults":[{"sectionIndex":0,"stepResults":[{"result":{"nanos":107270700,"millis":107.2707,"status":"passed"},"step":{"background":true,"line":4,"prefix":"*","index":0,"text":"url \"https:\/\/reqres.in\""}},{"result":{"nanos":1002300,"millis":1.0023,"status":"passed"},"step":{"line":7,"prefix":"Given","index":0,"text":"path \"\/api\/users\""}},{"result":{"nanos":2350600,"millis":2.3506,"status":"passed"},"step":{"line":8,"prefix":"And","index":1,"text":"param page = 2"}},{"result":{"nanos":1595648900,"millis":1595.6489,"status":"passed"},"step":{"line":9,"prefix":"When","index":2,"text":"method GET"},"stepLog":"12:25:32.286 request:\n1 > GET https:\/\/reqres.in\/api\/users?page=2\n1 > Host: reqres.in\n1 > Connection: Keep-Alive\n1 > User-Agent: Apache-HttpClient\/4.5.13 (Java\/17.0.2)\n1 > Accept-Encoding: gzip,deflate\n\n\n12:25:33.304 response time in milliseconds: 1011\n1 < 200\n1 < Date: Sat, 26 Feb 2022 06:55:31 GMT\n1 < Content-Type: application\/json; charset=utf-8\n1 < Transfer-Encoding: chunked\n1 < Connection: keep-alive\n1 < X-Powered-By: Express\n1 < Access-Control-Allow-Origin: *\n1 < Etag: W\/\"406-ut0vzoCuidvyMf8arZpMpJ6ZRDw\"\n1 < Via: 1.1 vegur\n1 < Cache-Control: max-age=14400\n1 < CF-Cache-Status: HIT\n1 < Age: 2013\n1 < Expect-CT: max-age=604800, report-uri=\"https:\/\/report-uri.cloudflare.com\/cdn-cgi\/beacon\/expect-ct\"\n1 < Report-To: {\"endpoints\":[{\"url\":\"https:\\\/\\\/a.nel.cloudflare.com\\\/report\\\/v3?s=zu0LS9RQSRCd3qHTm9eUTt8HcOKMJ5xwmI5FvBx7NCHjeblo%2FgTCl8fqd1MUUU4UkxxE0MTSr1bJH6PTDwGTrZtuhfZqK33LfZSNtwh2bKbXa2YqUnjQ5HLAWLQ%3D\"}],\"group\":\"cf-nel\",\"max_age\":604800}\n1 < NEL: {\"success_fraction\":0,\"report_to\":\"cf-nel\",\"max_age\":604800}\n1 < Vary: Accept-Encoding\n1 < Server: cloudflare\n1 < CF-RAY: 6e3744ad4f9ae68c-LHR\n1 < alt-svc: h3=\":443\"; ma=86400, h3-29=\":443\"; ma=86400\n{\"page\":2,\"per_page\":6,\"total\":12,\"total_pages\":2,\"data\":[{\"id\":7,\"email\":\"michael.lawson@reqres.in\",\"first_name\":\"Michael\",\"last_name\":\"Lawson\",\"avatar\":\"https:\/\/reqres.in\/img\/faces\/7-image.jpg\"},{\"id\":8,\"email\":\"lindsay.ferguson@reqres.in\",\"first_name\":\"Lindsay\",\"last_name\":\"Ferguson\",\"avatar\":\"https:\/\/reqres.in\/img\/faces\/8-image.jpg\"},{\"id\":9,\"email\":\"tobias.funke@reqres.in\",\"first_name\":\"Tobias\",\"last_name\":\"Funke\",\"avatar\":\"https:\/\/reqres.in\/img\/faces\/9-image.jpg\"},{\"id\":10,\"email\":\"byron.fields@reqres.in\",\"first_name\":\"Byron\",\"last_name\":\"Fields\",\"avatar\":\"https:\/\/reqres.in\/img\/faces\/10-image.jpg\"},{\"id\":11,\"email\":\"george.edwards@reqres.in\",\"first_name\":\"George\",\"last_name\":\"Edwards\",\"avatar\":\"https:\/\/reqres.in\/img\/faces\/11-image.jpg\"},{\"id\":12,\"email\":\"rachel.howell@reqres.in\",\"first_name\":\"Rachel\",\"last_name\":\"Howell\",\"avatar\":\"https:\/\/reqres.in\/img\/faces\/12-image.jpg\"}],\"support\":{\"url\":\"https:\/\/reqres.in\/#support-heading\",\"text\":\"To keep ReqRes free, contributions towards server costs are appreciated!\"}}\n\n"},{"result":{"nanos":27000,"millis":0.027,"status":"passed"},"step":{"line":10,"prefix":"Then","index":3,"text":"status 200"}},{"result":{"nanos":153384300,"millis":153.3843,"status":"passed"},"step":{"line":11,"prefix":"And","index":4,"text":"print response"},"stepLog":"12:25:33.509 [print] {\n  \"page\": 2,\n  \"per_page\": 6,\n  \"total\": 12,\n  \"total_pages\": 2,\n  \"data\": [\n    {\n      \"id\": 7,\n      \"email\": \"michael.lawson@reqres.in\",\n      \"first_name\": \"Michael\",\n      \"last_name\": \"Lawson\",\n      \"avatar\": \"https:\/\/reqres.in\/img\/faces\/7-image.jpg\"\n    },\n    {\n      \"id\": 8,\n      \"email\": \"lindsay.ferguson@reqres.in\",\n      \"first_name\": \"Lindsay\",\n      \"last_name\": \"Ferguson\",\n      \"avatar\": \"https:\/\/reqres.in\/img\/faces\/8-image.jpg\"\n    },\n    {\n      \"id\": 9,\n      \"email\": \"tobias.funke@reqres.in\",\n      \"first_name\": \"Tobias\",\n      \"last_name\": \"Funke\",\n      \"avatar\": \"https:\/\/reqres.in\/img\/faces\/9-image.jpg\"\n    },\n    {\n      \"id\": 10,\n      \"email\": \"byron.fields@reqres.in\",\n      \"first_name\": \"Byron\",\n      \"last_name\": \"Fields\",\n      \"avatar\": \"https:\/\/reqres.in\/img\/faces\/10-image.jpg\"\n    },\n    {\n      \"id\": 11,\n      \"email\": \"george.edwards@reqres.in\",\n      \"first_name\": \"George\",\n      \"last_name\": \"Edwards\",\n      \"avatar\": \"https:\/\/reqres.in\/img\/faces\/11-image.jpg\"\n    },\n    {\n      \"id\": 12,\n      \"email\": \"rachel.howell@reqres.in\",\n      \"first_name\": \"Rachel\",\n      \"last_name\": \"Howell\",\n      \"avatar\": \"https:\/\/reqres.in\/img\/faces\/12-image.jpg\"\n    }\n  ],\n  \"support\": {\n    \"url\": \"https:\/\/reqres.in\/#support-heading\",\n    \"text\": \"To keep ReqRes free, contributions towards server costs are appreciated!\"\n  }\n}\n \n"},{"result":{"nanos":2828400,"millis":2.8284,"status":"passed"},"step":{"line":12,"prefix":"And","index":5,"text":"print responseStatus"},"stepLog":"12:25:33.528 [print] 200 \n"},{"result":{"nanos":1640400,"millis":1.6404,"status":"passed"},"step":{"line":13,"prefix":"And","index":6,"text":"print responseTime"},"stepLog":"12:25:33.531 [print] 1011 \n"},{"result":{"nanos":2036200,"millis":2.0362,"status":"passed"},"step":{"line":14,"prefix":"And","index":7,"text":"print responseHeaders"},"stepLog":"12:25:33.533 [print] {\n  \"Date\": [\n    \"Sat, 26 Feb 2022 06:55:31 GMT\"\n  ],\n  \"Content-Type\": [\n    \"application\/json; charset=utf-8\"\n  ],\n  \"Transfer-Encoding\": [\n    \"chunked\"\n  ],\n  \"Connection\": [\n    \"keep-alive\"\n  ],\n  \"X-Powered-By\": [\n    \"Express\"\n  ],\n  \"Access-Control-Allow-Origin\": [\n    \"*\"\n  ],\n  \"Etag\": [\n    \"W\/\\\"406-ut0vzoCuidvyMf8arZpMpJ6ZRDw\\\"\"\n  ],\n  \"Via\": [\n    \"1.1 vegur\"\n  ],\n  \"Cache-Control\": [\n    \"max-age=14400\"\n  ],\n  \"CF-Cache-Status\": [\n    \"HIT\"\n  ],\n  \"Age\": [\n    \"2013\"\n  ],\n  \"Expect-CT\": [\n    \"max-age=604800, report-uri=\\\"https:\/\/report-uri.cloudflare.com\/cdn-cgi\/beacon\/expect-ct\\\"\"\n  ],\n  \"Report-To\": [\n    \"{\\\"endpoints\\\":[{\\\"url\\\":\\\"https:\\\\\/\\\\\/a.nel.cloudflare.com\\\\\/report\\\\\/v3?s=zu0LS9RQSRCd3qHTm9eUTt8HcOKMJ5xwmI5FvBx7NCHjeblo%2FgTCl8fqd1MUUU4UkxxE0MTSr1bJH6PTDwGTrZtuhfZqK33LfZSNtwh2bKbXa2YqUnjQ5HLAWLQ%3D\\\"}],\\\"group\\\":\\\"cf-nel\\\",\\\"max_age\\\":604800}\"\n  ],\n  \"NEL\": [\n    \"{\\\"success_fraction\\\":0,\\\"report_to\\\":\\\"cf-nel\\\",\\\"max_age\\\":604800}\"\n  ],\n  \"Vary\": [\n    \"Accept-Encoding\"\n  ],\n  \"Server\": [\n    \"cloudflare\"\n  ],\n  \"CF-RAY\": [\n    \"6e3744ad4f9ae68c-LHR\"\n  ],\n  \"alt-svc\": [\n    \"h3=\\\":443\\\"; ma=86400, h3-29=\\\":443\\\"; ma=86400\"\n  ]\n}\n \n"},{"result":{"nanos":3330900,"millis":3.3309,"status":"passed"},"step":{"line":15,"prefix":"And","index":8,"text":"print responseCookies"},"stepLog":"12:25:33.536 [print] null \n"}],"executorName":"main","line":6,"name":"First API Test Demo","description":"","durationMillis":1869.5197,"startTime":1645858531645,"failed":false,"refId":"[1:6]","endTime":1645858533537,"exampleIndex":-1}],"callDepth":0,"name":"First API Test","description":"","resultDate":"2022-02-26 12:25:33 pm","durationMillis":1869.5197,"passedCount":1}